%YAML 1.1
%TAG !u! tag:unity3d.com,2011:
--- !u!114 &11400000
MonoBehaviour:
  m_ObjectHideFlags: 0
  m_CorrespondingSourceObject: {fileID: 0}
  m_PrefabInstance: {fileID: 0}
  m_PrefabAsset: {fileID: 0}
  m_GameObject: {fileID: 0}
  m_Enabled: 1
  m_EditorHideFlags: 0
  m_Script: {fileID: 11500000, guid: fcac819ecc9391d45b1011b82e905935, type: 3}
  m_Name: Fatigue
  m_EditorClassIdentifier: 
  statName: Fatigue
  description: Yawn! Makes things harder...
  floatPointer: {fileID: 11400000, guid: fd27f47ebb9191545b82f56cf614d535, type: 2}
  color: {r: 0.582, g: 0.582, b: 0.582, a: 1}
  clampedValue: 1
  minValue: 0
  maxValue: 10
