%YAML 1.1
%TAG !u! tag:unity3d.com,2011:
--- !u!114 &11400000
MonoBehaviour:
  m_ObjectHideFlags: 0
  m_CorrespondingSourceObject: {fileID: 0}
  m_PrefabInstance: {fileID: 0}
  m_PrefabAsset: {fileID: 0}
  m_GameObject: {fileID: 0}
  m_Enabled: 1
  m_EditorHideFlags: 0
  m_Script: {fileID: 11500000, guid: f4f6bc24ea7dcf345839488ffceb7cd3, type: 3}
  m_Name: Player Controlled
  m_EditorClassIdentifier: 
  InteractKey: 32
  UpKey: 119
  DownKey: 115
  LeftKey: 97
  RightKey: 100
